appdirs==1.4.2
beautifulsoup4==4.6.0
bleach==2.0.0
certifi==2017.4.17
chardet==3.0.4
Django==1.10.7
django-admin-tools==0.8.1
django-autocomplete-light==3.2.10
django-contrib-comments==1.8.0
django-suit==0.2.25
djangorestframework==3.6.4
filebrowser-safe==0.4.7
future==0.16.0
grappelli-safe==0.4.6
html5lib==0.999999999
idna==2.5
Mezzanine==4.2.3
mysqlclient==1.3.12
oauthlib==2.0.2
olefile==0.44
packaging==16.8
Pillow==4.1.1
pyparsing==2.1.10
pytz==2017.2
reportlab==3.4.0
requests==2.17.3
requests-oauthlib==0.8.0
six==1.10.0
tzlocal==1.4
urllib3==1.21.1
webencodings==0.5.1
appdirs==1.4.2
beautifulsoup4==4.6.0
bleach==2.0.0
certifi==2017.4.17
chardet==3.0.4
Django==1.10.7
django-admin-tools==0.8.1
django-autocomplete-light==3.2.10
django-contrib-comments==1.8.0
django-field-history==0.6.0
django-suit==0.2.25
djangorestframework==3.6.4
filebrowser-safe==0.4.7
future==0.16.0
grappelli-safe==0.4.6
html5lib==0.999999999
idna==2.5
Mezzanine==4.2.3
mysqlclient==1.3.12
oauthlib==2.0.2
olefile==0.44
packaging==16.8
Pillow==4.1.1
psycopg2==2.7.3.2
pyparsing==2.1.10
pytz==2017.2
reportlab==3.4.0
repoze.workflow==0.6.1
repoze.zcml==0.4
requests==2.17.3
requests-oauthlib==0.8.0
six==1.10.0
tzlocal==1.4
urllib3==1.21.1
webencodings==0.5.1
zope.component==4.4.1
zope.configuration==4.1.0
zope.event==4.3.0
zope.i18nmessageid==4.1.0
zope.interface==4.4.3
zope.schema==4.5.0
